Date : 2022-10-20 10:42:41
Directory : /Users/stephane/Documents/enseignements/BATEM/supports/src
Total : 0 files,  0 codes, 0 comments, 0 blanks, all 0 lines

Languages
+----------+------------+------------+------------+------------+------------+
| language | files      | code       | comment    | blank      | total      |
+----------+------------+------------+------------+------------+------------+
+----------+------------+------------+------------+------------+------------+

Directories
+------+------------+------------+------------+------------+------------+
| path | files      | code       | comment    | blank      | total      |
+------+------------+------------+------------+------------+------------+
+------+------------+------------+------------+------------+------------+

Files
+----------+----------+------------+------------+------------+------------+
| filename | language | code       | comment    | blank      | total      |
+----------+----------+------------+------------+------------+------------+
| Total    |          |          0 |          0 |          0 |          0 |
+----------+----------+------------+------------+------------+------------+